%YAML 1.1
%TAG !u! tag:unity3d.com,2011:
--- !u!114 &11400000
MonoBehaviour:
  m_ObjectHideFlags: 0
  m_CorrespondingSourceObject: {fileID: 0}
  m_PrefabInstance: {fileID: 0}
  m_PrefabAsset: {fileID: 0}
  m_GameObject: {fileID: 0}
  m_Enabled: 1
  m_EditorHideFlags: 0
  m_Script: {fileID: 11500000, guid: 00d4d661eb43b2e4fab687236dae01cc, type: 3}
  m_Name: "\u0417\u0430\u0431\u0435\u0440\u0438 \u0434\u043E\u043B\u0433 \u0443 \u041B\u0435\u043E"
  m_EditorClassIdentifier: 
  _objectives:
  - reference: 1
    description: "\u041D\u0430\u0439\u0434\u0438 \u041B\u0435\u043E"
  - reference: 2
    description: "\u0417\u0430\u0431\u0435\u0440\u0438 \u0434\u043E\u043B\u0433"
  _rewards:
  - number: 1
    item: {fileID: 11400000, guid: 788580b8d960a604484ff65a9ee8d1a0, type: 2}
