%YAML 1.1
%TAG !u! tag:unity3d.com,2011:
--- !u!162 &1
EditorUserSettings:
  m_ObjectHideFlags: 0
  serializedVersion: 4
  m_ConfigSettings:
    RecentlyUsedSceneGuid-0:
      value: 55060d03570d0d5f545c097548750c4444154f73787c72647a7b4f6be4b7643b
      flags: 0
    RecentlyUsedSceneGuid-1:
      value: 5303050757570d5958580e7440700a44444f1e282a2b71637b7f4935b6b4356a
      flags: 0
    RecentlyUsedSceneGuid-2:
      value: 50500c07005459080856592141745b4412164a792d2d23677c78456be7b93668
      flags: 0
    RecentlyUsedSceneGuid-3:
      value: 0605500406540d0f0b5b0f7513220944414e1b7c2f2c27672e781e30e6b16561
      flags: 0
    RecentlyUsedSceneGuid-4:
      value: 01070c545057510a0f5c5d72467206444e4f1e787a7a7f327e2b4864b1b4316e
      flags: 0
    RecentlyUsedSceneGuid-5:
      value: 56090056510c585d540a082741210c444f151c73282c23642f7f1b61e6b7366f
      flags: 0
    RecentlyUsedSceneGuid-6:
      value: 5b07065e01530d5f095a087749225d444416482c7d7822627e7c4430e4b16d3e
      flags: 0
    RecentlyUsedSceneGuid-7:
      value: 0006065751075a0a0e5f5f7512255d4440151a7e7a7925652e704836e1b76d6c
      flags: 0
    RecentlyUsedSceneGuid-8:
      value: 5102505e530358095b5b082715270844444e4d73787970352c7c4567b5b5326f
      flags: 0
    RecentlyUsedSceneGuid-9:
      value: 5a5757560101590a5d0c0e24427b5d44434e4c7a7b7a23677f2b4565b7b5353a
      flags: 0
    vcSharedLogLevel:
      value: 0d5e400f0650
      flags: 0
  m_VCAutomaticAdd: 1
  m_VCDebugCom: 0
  m_VCDebugCmd: 0
  m_VCDebugOut: 0
  m_SemanticMergeMode: 2
  m_DesiredImportWorkerCount: 1
  m_StandbyImportWorkerCount: 1
  m_IdleImportWorkerShutdownDelay: 60000
  m_VCShowFailedCheckout: 1
  m_VCOverwriteFailedCheckoutAssets: 1
  m_VCProjectOverlayIcons: 1
  m_VCHierarchyOverlayIcons: 1
  m_VCOtherOverlayIcons: 1
  m_VCAllowAsyncUpdate: 1
  m_ArtifactGarbageCollection: 1
